module podman-bootc

go 1.20

require (
	github.com/adrg/xdg v0.4.0
	github.com/containers/podman/v5 v5.0.0-rc7
	github.com/fsnotify/fsnotify v1.7.0 // indirect
	github.com/sirupsen/logrus v1.9.3
	github.com/spf13/cobra v1.8.0
	golang.org/x/sys v0.18.0
)

require libvirt.org/go/libvirt v1.10001.0

require (
	github.com/bytedance/sonic v1.10.2 // indirect
	github.com/chenzhuoyu/base64x v0.0.0-20230717121745-296ad89f973d // indirect
	github.com/chenzhuoyu/iasm v0.9.1 // indirect
	github.com/containerd/errdefs v0.1.0 // indirect
	github.com/containerd/typeurl/v2 v2.1.1 // indirect
	github.com/containers/gvisor-tap-vsock v0.7.3 // indirect
	github.com/containers/libhvee v0.7.0 // indirect
	github.com/containers/winquit v1.1.0 // indirect
	github.com/crc-org/crc/v2 v2.32.0 // indirect
	github.com/crc-org/vfkit v0.5.1 // indirect
	github.com/digitalocean/go-libvirt v0.0.0-20220804181439-8648fbde413e // indirect
	github.com/digitalocean/go-qemu v0.0.0-20230711162256-2e3d0186973e // indirect
	github.com/fsouza/go-dockerclient v1.10.1 // indirect
	github.com/gabriel-vasile/mimetype v1.4.3 // indirect
	github.com/gin-contrib/sse v0.1.0 // indirect
	github.com/gin-gonic/gin v1.9.1 // indirect
	github.com/go-ole/go-ole v1.3.0 // indirect
	github.com/go-playground/locales v0.14.1 // indirect
	github.com/go-playground/universal-translator v0.18.1 // indirect
	github.com/go-playground/validator/v10 v10.17.0 // indirect
	github.com/goccy/go-json v0.10.2 // indirect
	github.com/klauspost/cpuid/v2 v2.2.6 // indirect
	github.com/leodido/go-urn v1.2.4 // indirect
	github.com/lufia/plan9stats v0.0.0-20211012122336-39d0f177ccd0 // indirect
	github.com/mattn/go-colorable v0.1.13 // indirect
	github.com/mattn/go-isatty v0.0.20 // indirect
	github.com/moby/buildkit v0.12.5 // indirect
	github.com/moby/patternmatcher v0.6.0 // indirect
	github.com/moby/sys/sequential v0.5.0 // indirect
	github.com/openshift/imagebuilder v1.2.6 // indirect
	github.com/pelletier/go-toml/v2 v2.1.1 // indirect
	github.com/power-devops/perfstat v0.0.0-20210106213030-5aafc221ea8c // indirect
	github.com/shirou/gopsutil/v3 v3.24.2 // indirect
	github.com/shoenig/go-m1cpu v0.1.6 // indirect
	github.com/tklauser/go-sysconf v0.3.12 // indirect
	github.com/tklauser/numcpus v0.6.1 // indirect
	github.com/twitchyliquid64/golang-asm v0.15.1 // indirect
	github.com/ugorji/go/codec v1.2.12 // indirect
	github.com/yusufpapurcu/wmi v1.2.4 // indirect
	golang.org/x/arch v0.7.0 // indirect
	gopkg.in/natefinch/lumberjack.v2 v2.2.1 // indirect
)

require (
	dario.cat/mergo v1.0.0 // indirect
	github.com/Azure/go-ansiterm v0.0.0-20230124172434-306776ec8161 // indirect
	github.com/BurntSushi/toml v1.3.2 // indirect
	github.com/Microsoft/go-winio v0.6.1 // indirect
	github.com/Microsoft/hcsshim v0.12.0-rc.3 // indirect
	github.com/VividCortex/ewma v1.2.0 // indirect
	github.com/acarl005/stripansi v0.0.0-20180116102854-5a71ef0e047d // indirect
	github.com/asaskevich/govalidator v0.0.0-20230301143203-a9d515a09cc2 // indirect
	github.com/blang/semver/v4 v4.0.0 // indirect
	github.com/chzyer/readline v1.5.1 // indirect
	github.com/cilium/ebpf v0.11.0 // indirect
	github.com/containerd/cgroups/v3 v3.0.3 // indirect
	github.com/containerd/containerd v1.7.13 // indirect
	github.com/containerd/log v0.1.0 // indirect
	github.com/containerd/stargz-snapshotter/estargz v0.15.1 // indirect
	github.com/containers/buildah v1.35.0 // indirect
	github.com/containers/common v0.58.0 // indirect
	github.com/containers/image/v5 v5.30.0 // indirect
	github.com/containers/libtrust v0.0.0-20230121012942-c1716e8a8d01 // indirect
	github.com/containers/ocicrypt v1.1.9 // indirect
	github.com/containers/psgo v1.9.0 // indirect
	github.com/containers/storage v1.53.0 // indirect
	github.com/coreos/go-systemd/v22 v22.5.1-0.20231103132048-7d375ecc2b09 // indirect
	github.com/cyberphone/json-canonicalization v0.0.0-20231217050601-ba74d44ecf5f // indirect
	github.com/cyphar/filepath-securejoin v0.2.4 // indirect
	github.com/disiqueira/gotree/v3 v3.0.2 // indirect
	github.com/distribution/reference v0.5.0 // indirect
	github.com/docker/distribution v2.8.3+incompatible // indirect
	github.com/docker/docker v25.0.3+incompatible // indirect
	github.com/docker/docker-credential-helpers v0.8.1 // indirect
	github.com/docker/go-connections v0.5.0 // indirect
	github.com/docker/go-units v0.5.0 // indirect
	github.com/felixge/httpsnoop v1.0.4 // indirect
	github.com/go-jose/go-jose/v3 v3.0.3 // indirect
	github.com/go-logr/logr v1.4.1 // indirect
	github.com/go-logr/stdr v1.2.2 // indirect
	github.com/go-openapi/analysis v0.21.4 // indirect
	github.com/go-openapi/errors v0.21.1 // indirect
	github.com/go-openapi/jsonpointer v0.19.6 // indirect
	github.com/go-openapi/jsonreference v0.20.2 // indirect
	github.com/go-openapi/loads v0.21.2 // indirect
	github.com/go-openapi/runtime v0.26.0 // indirect
	github.com/go-openapi/spec v0.20.9 // indirect
	github.com/go-openapi/strfmt v0.22.2 // indirect
	github.com/go-openapi/swag v0.22.10 // indirect
	github.com/go-openapi/validate v0.22.1 // indirect
	github.com/godbus/dbus/v5 v5.1.1-0.20230522191255-76236955d466 // indirect
	github.com/gogo/protobuf v1.3.2 // indirect
	github.com/golang/groupcache v0.0.0-20210331224755-41bb18bfe9da // indirect
	github.com/golang/protobuf v1.5.3 // indirect
	github.com/google/go-containerregistry v0.19.0 // indirect
	github.com/google/go-intervals v0.0.2 // indirect
	github.com/google/uuid v1.6.0 // indirect
	github.com/gorilla/mux v1.8.1 // indirect
	github.com/gorilla/schema v1.2.1 // indirect
	github.com/hashicorp/errwrap v1.1.0 // indirect
	github.com/hashicorp/go-multierror v1.1.1 // indirect
	github.com/inconshreveable/mousetrap v1.1.0 // indirect
	github.com/jinzhu/copier v0.4.0 // indirect
	github.com/josharian/intern v1.0.0 // indirect
	github.com/json-iterator/go v1.1.12 // indirect
	github.com/klauspost/compress v1.17.7 // indirect
	github.com/klauspost/pgzip v1.2.6 // indirect
	github.com/kr/fs v0.1.0 // indirect
	github.com/letsencrypt/boulder v0.0.0-20230907030200-6d76a0f91e1e // indirect
	github.com/mailru/easyjson v0.7.7 // indirect
	github.com/manifoldco/promptui v0.9.0 // indirect
	github.com/mattn/go-runewidth v0.0.15 // indirect
	github.com/mattn/go-shellwords v1.0.12 // indirect
	github.com/mattn/go-sqlite3 v1.14.22 // indirect
	github.com/miekg/pkcs11 v1.1.1 // indirect
	github.com/mistifyio/go-zfs/v3 v3.0.1 // indirect
	github.com/mitchellh/mapstructure v1.5.0 // indirect
	github.com/moby/sys/mountinfo v0.7.1 // indirect
	github.com/moby/sys/user v0.1.0 // indirect
	github.com/moby/term v0.5.0 // indirect
	github.com/modern-go/concurrent v0.0.0-20180306012644-bacd9c7ef1dd // indirect
	github.com/modern-go/reflect2 v1.0.2 // indirect
	github.com/morikuni/aec v1.0.0 // indirect
	github.com/nxadm/tail v1.4.11 // indirect
	github.com/oklog/ulid v1.3.1 // indirect
	github.com/opencontainers/go-digest v1.0.0 // indirect
	github.com/opencontainers/image-spec v1.1.0 // indirect
	github.com/opencontainers/runc v1.1.12 // indirect
	github.com/opencontainers/runtime-spec v1.2.0
	github.com/opencontainers/runtime-tools v0.9.1-0.20230914150019-408c51e934dc // indirect
	github.com/opencontainers/selinux v1.11.0 // indirect
	github.com/ostreedev/ostree-go v0.0.0-20210805093236-719684c64e4f // indirect
	github.com/pkg/errors v0.9.1 // indirect
	github.com/pkg/sftp v1.13.6 // indirect
	github.com/proglottis/gpgme v0.1.3 // indirect
	github.com/rivo/uniseg v0.4.7 // indirect
	github.com/secure-systems-lab/go-securesystemslib v0.8.0 // indirect
	github.com/sigstore/fulcio v1.4.3 // indirect
	github.com/sigstore/rekor v1.2.2 // indirect
	github.com/sigstore/sigstore v1.8.2 // indirect
	github.com/spf13/pflag v1.0.5 // indirect
	github.com/stefanberger/go-pkcs11uri v0.0.0-20201008174630-78d3cae3a980 // indirect
	github.com/sylabs/sif/v2 v2.15.1 // indirect
	github.com/syndtr/gocapability v0.0.0-20200815063812-42c35b437635 // indirect
	github.com/tchap/go-patricia/v2 v2.3.1 // indirect
	github.com/titanous/rocacheck v0.0.0-20171023193734-afe73141d399 // indirect
	github.com/ulikunitz/xz v0.5.11 // indirect
	github.com/vbatts/tar-split v0.11.5 // indirect
	github.com/vbauerster/mpb/v8 v8.7.2 // indirect
	go.mongodb.org/mongo-driver v1.14.0 // indirect
	go.mozilla.org/pkcs7 v0.0.0-20210826202110-33d05740a352 // indirect
	go.opencensus.io v0.24.0 // indirect
	go.opentelemetry.io/contrib/instrumentation/net/http/otelhttp v0.45.0 // indirect
	go.opentelemetry.io/otel v1.22.0 // indirect
	go.opentelemetry.io/otel/metric v1.22.0 // indirect
	go.opentelemetry.io/otel/trace v1.22.0 // indirect
	golang.org/x/crypto v0.21.0
	golang.org/x/exp v0.0.0-20240222234643-814bf88cf225 // indirect
	golang.org/x/mod v0.15.0 // indirect
	golang.org/x/net v0.22.0 // indirect
	golang.org/x/sync v0.6.0 // indirect
	golang.org/x/term v0.18.0 // indirect
	golang.org/x/text v0.14.0 // indirect
	golang.org/x/time v0.3.0 // indirect
	golang.org/x/tools v0.18.0 // indirect
	google.golang.org/genproto/googleapis/rpc v0.0.0-20231212172506-995d672761c0 // indirect
	google.golang.org/grpc v1.61.0 // indirect
	google.golang.org/protobuf v1.33.0 // indirect
	gopkg.in/go-jose/go-jose.v2 v2.6.3 // indirect
	gopkg.in/tomb.v1 v1.0.0-20141024135613-dd632973f1e7 // indirect
	gopkg.in/yaml.v3 v3.0.1 // indirect
	sigs.k8s.io/yaml v1.4.0 // indirect
	tags.cncf.io/container-device-interface v0.6.2 // indirect
)
